Section 15: Learning with machines
…
# Check our data
train_df

## # A tibble: 891 x 12
##    PassengerId Survived Pclass Name   Sex     Age SibSp Parch Ticket  Fare
##          <int>    <int>  <int> <chr>  <chr> <dbl> <int> <int> <chr>  <dbl>
##  1           1        0      3 Braun… male    22.     1     0 A/5 2…  7.25
##  2           2        1      1 Cumin… fema…   38.     1     0 PC 17… 71.3 
##  3           3        1      3 Heikk… fema…   26.     0     0 STON/…  7.92
##  4           4        1      1 Futre… fema…   35.     1     0 113803 53.1 
##  5           5        0      3 Allen… male    35.     0     0 373450  8.05
##  6           6        0      3 Moran… male    NA      0     0 330877  8.46
##  7           7        0      1 McCar… male    54.     0     0 17463  51.9 
##  8           8        0      3 Palss… male     2.     3     1 349909 21.1 
##  9           9        1      3 Johns… fema…   27.     0     2 347742 11.1 
## 10          10        1      2 Nasse… fema…   14.     1     0 237736 30.1 
## # ... with 881 more rows, and 2 more variables: Cabin <chr>,
## #   Embarked <chr>
…
