Section 1: Getting started with R
…
Enough talk. Let’s finally load the file.

# Load the .dta file
car_data <- read_dta(paste0(dir_section1, "auto.dta"))

The <- operator is central to everything you do in R. It assigns the value(s) on the right-hand side of the arrow to the name on the left-hand side. When reading R code aloud, people often replace the arrow with “gets”. The main thing to understand is that the contents of “auto.dta” are now assigned to the name car_data. To see this, simply type the name into the console (a bad idea with really big datasets, but this dataset is not big).

car_data

## # A tibble: 74 x 12
##             make price   mpg rep78 headroom trunk weight length  turn
##            <chr> <dbl> <dbl> <dbl>    <dbl> <dbl>  <dbl>  <dbl> <dbl>
##  1   AMC Concord  4099    22     3      2.5    11   2930    186    40
##  2     AMC Pacer  4749    17     3      3.0    11   3350    173    40
##  3    AMC Spirit  3799    22    NA      3.0    12   2640    168    35
##  4 Buick Century  4816    20     3      4.5    16   3250    196    40
##  5 Buick Electra  7827    15     4      4.0    20   4080    222    43
##  6 Buick LeSabre  5788    18     3      4.0    21   3670    218    43
##  7    Buick Opel  4453    26    NA      3.0    10   2230    170    34
##  8   Buick Regal  5189    20     3      2.0    16   3280    200    42
##  9 Buick Riviera 10372    16     3      3.5    17   3880    207    43
## 10 Buick Skylark  4082    19     3      3.5    13   3400    200    42
## # ... with 64 more rows, and 3 more variables: displacement <dbl>,
## #   gear_ratio <dbl>, foreign <dbl+lbl>
…
# See that it looks the same as above
car_data

## # A tibble: 74 x 12
##             make price   mpg rep78 headroom trunk weight length  turn
##            <chr> <dbl> <dbl> <dbl>    <dbl> <dbl>  <dbl>  <dbl> <dbl>
##  1   AMC Concord  4099    22     3      2.5    11   2930    186    40
##  2     AMC Pacer  4749    17     3      3.0    11   3350    173    40
##  3    AMC Spirit  3799    22   NaN      3.0    12   2640    168    35
##  4 Buick Century  4816    20     3      4.5    16   3250    196    40
##  5 Buick Electra  7827    15     4      4.0    20   4080    222    43
##  6 Buick LeSabre  5788    18     3      4.0    21   3670    218    43
##  7    Buick Opel  4453    26   NaN      3.0    10   2230    170    34
##  8   Buick Regal  5189    20     3      2.0    16   3280    200    42
##  9 Buick Riviera 10372    16     3      3.5    17   3880    207    43
## 10 Buick Skylark  4082    19     3      3.5    13   3400    200    42
## # ... with 64 more rows, and 3 more variables: displacement <dbl>,
## #   gear_ratio <dbl>, foreign <int>
…
##   make = col_character(),
##   price = col_double(),
##   mpg = col_double(),
##   rep78 = col_double(),
##   headroom = col_double(),
##   trunk = col_double(),
##   weight = col_double(),
##   length = col_double(),
##   turn = col_double(),
##   displacement = col_double(),
##   gear_ratio = col_double(),
##   foreign = col_integer()
## )

## # A tibble: 74 x 12
##             make price   mpg rep78 headroom trunk weight length  turn
##            <chr> <dbl> <dbl> <dbl>    <dbl> <dbl>  <dbl>  <dbl> <dbl>
##  1   AMC Concord  4099    22     3      2.5    11   2930    186    40
##  2     AMC Pacer  4749    17     3      3.0    11   3350    173    40
##  3    AMC Spirit  3799    22   NaN      3.0    12   2640    168    35
##  4 Buick Century  4816    20     3      4.5    16   3250    196    40
##  5 Buick Electra  7827    15     4      4.0    20   4080    222    43
##  6 Buick LeSabre  5788    18     3      4.0    21   3670    218    43
##  7    Buick Opel  4453    26   NaN      3.0    10   2230    170    34
##  8   Buick Regal  5189    20     3      2.0    16   3280    200    42
##  9 Buick Riviera 10372    16     3      3.5    17   3880    207    43
## 10 Buick Skylark  4082    19     3      3.5    13   3400    200    42
## # ... with 64 more rows, and 3 more variables: displacement <dbl>,
## #   gear_ratio <dbl>, foreign <int>

Playing with data

You now know how to navigate your computer and load data. You might want to do something with those data.

Exploring the data

Let’s print the data into the console again.

car_data

## # A tibble: 74 x 12
##             make price   mpg rep78 headroom trunk weight length  turn
##            <chr> <dbl> <dbl> <dbl>    <dbl> <dbl>  <dbl>  <dbl> <dbl>
##  1   AMC Concord  4099    22     3      2.5    11   2930    186    40
##  2     AMC Pacer  4749    17     3      3.0    11   3350    173    40
##  3    AMC Spirit  3799    22   NaN      3.0    12   2640    168    35
##  4 Buick Century  4816    20     3      4.5    16   3250    196    40
##  5 Buick Electra  7827    15     4      4.0    20   4080    222    43
##  6 Buick LeSabre  5788    18     3      4.0    21   3670    218    43
##  7    Buick Opel  4453    26   NaN      3.0    10   2230    170    34
##  8   Buick Regal  5189    20     3      2.0    16   3280    200    42
##  9 Buick Riviera 10372    16     3      3.5    17   3880    207    43
## 10 Buick Skylark  4082    19     3      3.5    13   3400    200    42
## # ... with 64 more rows, and 3 more variables: displacement <dbl>,
## #   gear_ratio <dbl>, foreign <int>
…
Manipulating the data

select()

Now let’s move on to manipulating our dataset. The package dplyr offers a lot of help in manipulating data. dplyr is built on the paradigm of using verbs as actions on the data—for instance, select() variables and then summarize() them.

First, let’s say we only care about a subset of the variables (e.g price, mpg, weight, and length) and don’t feel like hanging on to the others. You could complete this task with R’s built-in subset() function, but let’s instead use the select() function from dplyr. All you need to do is give select() the name of the dataset (car_data) and the names of the variables that we want to keep. dplyr (and some other functions in R) uses what is called non-standard evaluation, which means you do not need to put quotes around the variable names.8

# Select our desired variables; define as car_sub
car_sub <- select(car_data, price, mpg, weight, length)
# Print the dataset
car_sub

## # A tibble: 74 x 4
##    price   mpg weight length
##    <dbl> <dbl>  <dbl>  <dbl>
##  1  4099    22   2930    186
##  2  4749    17   3350    173
##  3  3799    22   2640    168
##  4  4816    20   3250    196
##  5  7827    15   4080    222
##  6  5788    18   3670    218
##  7  4453    26   2230    170
##  8  5189    20   3280    200
##  9 10372    16   3880    207
## 10  4082    19   3400    200
## # ... with 64 more rows

You can see that we still have 74 rows but only four columns.

Alternatively, you can choose which variables you would like to exclude from a dataset by placing a negative sign (dash) in front of the name

select(car_data, -price, -mpg, -weight, -length)

## # A tibble: 74 x 8
##             make rep78 headroom trunk  turn displacement gear_ratio
##            <chr> <dbl>    <dbl> <dbl> <dbl>        <dbl>      <dbl>
##  1   AMC Concord     3      2.5    11    40          121       3.58
##  2     AMC Pacer     3      3.0    11    40          258       2.53
##  3    AMC Spirit   NaN      3.0    12    35          121       3.08
##  4 Buick Century     3      4.5    16    40          196       2.93
##  5 Buick Electra     4      4.0    20    43          350       2.41
##  6 Buick LeSabre     3      4.0    21    43          231       2.73
##  7    Buick Opel   NaN      3.0    10    34          304       2.87
##  8   Buick Regal     3      2.0    16    42          196       2.93
##  9 Buick Riviera     3      3.5    17    43          231       2.93
## 10 Buick Skylark     3      3.5    13    42          231       3.08
## # ... with 64 more rows, and 1 more variables: foreign <int>

arrange()

We often want to arrange our dataset by one or more columns. For this task, dplyr offers the arrange() function. The notation is similar to that of select: the data object’s name followed by the variables with with you would like to arrange the object. Let’s arrange by price and mpg. The second dimension of sorting here is only for demonstration (it’s pointless in the actually arrangement).

arrange(car_sub, price, mpg)

## # A tibble: 74 x 4
##    price   mpg weight length
##    <dbl> <dbl>  <dbl>  <dbl>
##  1  3291    20   2830    195
##  2  3299    29   2110    163
##  3  3667    24   2750    179
##  4  3748    31   2200    165
##  5  3798    35   2050    164
##  6  3799    22   2640    168
##  7  3829    22   2580    169
##  8  3895    26   1830    142
##  9  3955    19   3430    197
## 10  3984    30   2120    163
## # ... with 64 more rows

Having used the arrange() function on our data, what happens if we view the dataset now?

car_sub

## # A tibble: 74 x 4
##    price   mpg weight length
##    <dbl> <dbl>  <dbl>  <dbl>
##  1  4099    22   2930    186
##  2  4749    17   3350    173
##  3  3799    22   2640    168
##  4  4816    20   3250    196
##  5  7827    15   4080    222
##  6  5788    18   3670    218
##  7  4453    26   2230    170
##  8  5189    20   3280    200
##  9 10372    16   3880    207
## 10  4082    19   3400    200
## # ... with 64 more rows

It is no longer arranged. This point is important. With nearly every function in R, you must assign the output of a function to an object if you want anything to change. Otherwise, you are simply printing your results to the console.

arrange() defaults to ascending ordering; if you would like descending ordering, use the desc() function on the variables that you would like to be descending.

arrange(car_sub, desc(price), mpg)

## # A tibble: 74 x 4
##    price   mpg weight length
##    <dbl> <dbl>  <dbl>  <dbl>
##  1 15906    21   4290    204
##  2 14500    14   3900    204
##  3 13594    12   4720    230
##  4 13466    14   3830    201
##  5 12990    14   3420    192
##  6 11995    17   3170    193
##  7 11497    12   4840    233
##  8 11385    14   4330    221
##  9 10372    16   3880    207
## 10 10371    16   4030    206
## # ... with 64 more rows
…
To grab the first row of car_sub, we put a 1 for the row index and leave the column blank.

car_sub[1, ]

## # A tibble: 1 x 4
##   price   mpg weight length
##   <dbl> <dbl>  <dbl>  <dbl>
## 1  4099    22   2930    186

To grab the first column of car_sub, we

car_sub[, 1]

## # A tibble: 74 x 1
##    price
##    <dbl>
##  1  4099
##  2  4749
##  3  3799
##  4  4816
##  5  7827
##  6  5788
##  7  4453
##  8  5189
##  9 10372
## 10  4082
## # ... with 64 more rows

You can also use the name of a column as its index

car_sub[, "price"]

## # A tibble: 74 x 1
##    price
##    <dbl>
##  1  4099
##  2  4749
##  3  3799
##  4  4816
##  5  7827
##  6  5788
##  7  4453
##  8  5189
##  9 10372
## 10  4082
## # ... with 64 more rows
…
