Section 12: Spatial data
…
Points data

In addition to shapefiles, the second type of vector data you will often encounter is point data. These files are exactly what they sound like: each observation (row) contains coordinates for a point in space and information on some set of variables.

Let’s load a points dataset. The file chicagoCrime.rds containts Chicago’s police incident reports data from 2010 to the present (again, downloaded from Chicago’s data portal). The actual dataset has a few more variables and goes back to 2001, but I wanted to keep the file a bit smaller. I’ve saved the file as an .rds file, which is an R-specific format that offers a lot of compression, substantially reducing the size of the file. To load an .rds file, you can use the readRDS() function (or readr’s read_rds() function, which is just a wrapper for readRDS()). Let’s load it.

# Read crime points data file
crime_df <- readRDS(paste0(dir_12, "chicagoCrime.rds"))
# Convert to tbl_df
crime_df %<>% tbl_df()
# Check it out
crime_df

## # A tibble: 2,234,883 x 8
##         ID                   Date      `Primary Type` Arrest Domestic
##      <int>                  <chr>               <chr>  <chr>    <chr>
##  1 8438081 01/12/2012 06:40:00 PM               THEFT   true    false
##  2 8438082 01/08/2012 12:00:00 PM               THEFT  false    false
##  3 8438084 01/12/2012 07:23:00 PM           NARCOTICS   true    false
##  4 8438085 01/12/2012 04:30:00 PM             BATTERY  false    false
##  5 8438086 01/11/2012 01:00:00 PM     CRIMINAL DAMAGE  false    false
##  6 8438087 01/10/2012 02:00:00 AM             ASSAULT  false     true
##  7 8438088 01/12/2012 05:55:00 PM               THEFT   true    false
##  8 8438089 01/10/2012 04:00:00 PM MOTOR VEHICLE THEFT  false    false
##  9 8438090 01/12/2012 07:20:00 PM  DECEPTIVE PRACTICE   true    false
## 10 8438091 01/12/2012 07:30:00 PM  DECEPTIVE PRACTICE  false    false
## # ... with 2,234,873 more rows, and 3 more variables: Beat <int>,
## #   Latitude <dbl>, Longitude <dbl>
…
# Change names
names(crime_df) <- c("id", "date", "primary_offense",
  "arrest", "domestic", "beat", "lat", "lon")
# Drop observations missing lat or lon
crime_df %<>% filter(!is.na(lat) & !is.na(lon))
# Convert dates
crime_df %<>% mutate(date = mdy_hms(date))

## Warning in as.POSIXlt.POSIXct(x, tz): unknown timezone 'zone/tz/2018c.1.0/
## zoneinfo/America/Los_Angeles'

# Check it out again
crime_df

## # A tibble: 2,203,481 x 8
##         id                date     primary_offense arrest domestic  beat
##      <int>              <dttm>               <chr>  <chr>    <chr> <int>
##  1 8438081 2012-01-12 18:40:00               THEFT   true    false   131
##  2 8438082 2012-01-08 12:00:00               THEFT  false    false  1732
##  3 8438084 2012-01-12 19:23:00           NARCOTICS   true    false  1211
##  4 8438085 2012-01-12 16:30:00             BATTERY  false    false  1623
##  5 8438086 2012-01-11 13:00:00     CRIMINAL DAMAGE  false    false  1412
##  6 8438087 2012-01-10 02:00:00             ASSAULT  false     true  1732
##  7 8438088 2012-01-12 17:55:00               THEFT   true    false  2513
##  8 8438089 2012-01-10 16:00:00 MOTOR VEHICLE THEFT  false    false  1723
##  9 8438090 2012-01-12 19:20:00  DECEPTIVE PRACTICE   true    false  1832
## 10 8438091 2012-01-12 19:30:00  DECEPTIVE PRACTICE  false    false  1133
## # ... with 2,203,471 more rows, and 2 more variables: lat <dbl>, lon <dbl>
…
